Full Analysis Script
…
glance(ML_fit1) # Model-level statistics

# A tibble: 1 × 12
  r.squared adj.r.squared sigma statistic   p.value    df  logLik    AIC    BIC
      <dbl>         <dbl> <dbl>     <dbl>     <dbl> <dbl>   <dbl>  <dbl>  <dbl>
1   0.00959       0.00908  497.      18.6 0.0000171     1 -14643. 29291. 29308.
# ℹ 3 more variables: deviance <dbl>, df.residual <int>, nobs <int>

# Produce predictions for R-squared
ML_fit1_pred <- predict(ML_fit1, new_data = ML_linear %>% select(-Weightgrams))
ML_fit1_pred

# A tibble: 1,920 × 1
   .pred
   <dbl>
 1 3088.
 2 3088.
 3 3088.
 4 3088.
 5 3188.
 6 3088.
 7 3188.
 8 3188.
 9 3088.
10 3188.
# ℹ 1,910 more rows

# Predicted numeric outcome named .pred. Now we will match predicted values with corresponding observed outcome values
ML_fit1_pred <- bind_cols(ML_fit1_pred, ML_linear %>% select(Weightgrams))
ML_fit1_pred

# A tibble: 1,920 × 2
   .pred Weightgrams
   <dbl>       <dbl>
 1 3088.        2900
 2 3088.        3400
 3 3088.        2200
 4 3088.        2250
 5 3188.        2600
 6 3088.        2750
 7 3188.        2750
 8 3188.        2770
 9 3088.        2800
10 3188.        3000
# ℹ 1,910 more rows
…
glance(ML_fit1_train) # Model-level statistics

# A tibble: 1 × 12
  r.squared adj.r.squared sigma statistic   p.value    df  logLik    AIC    BIC
      <dbl>         <dbl> <dbl>     <dbl>     <dbl> <dbl>   <dbl>  <dbl>  <dbl>
1    0.0107       0.00998  491.      15.5 0.0000865     1 -10965. 21936. 21952.
# ℹ 3 more variables: deviance <dbl>, df.residual <int>, nobs <int>

# Produce predictions for R-squared
ML_fit1_pred_train <- predict(ML_fit1_train, new_data = train_data %>% select(-Weightgrams))
ML_fit1_pred_train

# A tibble: 1,440 × 1
   .pred
   <dbl>
 1 3202.
 2 3099.
 3 3202.
 4 3202.
 5 3202.
 6 3099.
 7 3099.
 8 3099.
 9 3099.
10 3099.
# ℹ 1,430 more rows

# Predicted numeric outcome named .pred. Now we will match predicted values with corresponding observed outcome values
ML_fit1_pred_train <- bind_cols(ML_fit1_pred_train, train_data %>% select(Weightgrams))
ML_fit1_pred_train

# A tibble: 1,440 × 2
   .pred Weightgrams
   <dbl>       <dbl>
 1 3202.        3200
 2 3099.        3100
 3 3202.        2760
 4 3202.        3500
 5 3202.        2500
 6 3099.        3000
 7 3099.        3600
 8 3099.        2600
 9 3099.        3700
10 3099.        3850
# ℹ 1,430 more rows
…
glance(ML_fit1_test) # Model-level statistics

# A tibble: 1 × 12
  r.squared adj.r.squared sigma statistic p.value    df logLik   AIC   BIC
      <dbl>         <dbl> <dbl>     <dbl>   <dbl> <dbl>  <dbl> <dbl> <dbl>
1   0.00705       0.00497  513.      3.39  0.0661     1 -3675. 7356. 7369.
# ℹ 3 more variables: deviance <dbl>, df.residual <int>, nobs <int>

# Produce predictions for R-squared
ML_fit1_pred_test <- predict(ML_fit1_test, new_data = test_data %>% select(-Weightgrams))
ML_fit1_pred_test

# A tibble: 480 × 1
   .pred
   <dbl>
 1 3056.
 2 3056.
 3 3056.
 4 3144.
 5 3144.
 6 3056.
 7 3144.
 8 3056.
 9 3144.
10 3144.
# ℹ 470 more rows

# Predicted numeric outcome named .pred. Now we will match predicted values with corresponding observed outcome values
ML_fit1_pred_test <- bind_cols(ML_fit1_pred_test, test_data %>% select(Weightgrams))
ML_fit1_pred_test

# A tibble: 480 × 2
   .pred Weightgrams
   <dbl>       <dbl>
 1 3056.        2900
 2 3056.        3400
 3 3056.        2200
 4 3144.        2750
 5 3144.        2770
 6 3056.        2800
 7 3144.        3000
 8 3056.        3200
 9 3144.        3250
10 3144.        3250
# ℹ 470 more rows
…
glance(ML_fit2) # Model-level statistics

# A tibble: 1 × 12
  r.squared adj.r.squared sigma statistic    p.value    df  logLik    AIC    BIC
      <dbl>         <dbl> <dbl>     <dbl>      <dbl> <dbl>   <dbl>  <dbl>  <dbl>
1    0.0271        0.0240  493.      8.87    1.45e-9     6 -14626. 29267. 29312.
# ℹ 3 more variables: deviance <dbl>, df.residual <int>, nobs <int>

# Produce predictions for R-squared
ML_fit2_pred <- predict(ML_fit2, new_data = ML_linear %>% select(-Weightgrams))
ML_fit2_pred

# A tibble: 1,920 × 1
   .pred
   <dbl>
 1 3140.
 2 3140.
 3 3135.
 4 3132.
 5 3228.
 6 3129.
 7 3258.
 8 3231.
 9 3148.
10 3252.
# ℹ 1,910 more rows

# Predicted numeric outcome named .pred. Now we will match predicted values with corresponding observed outcome values
ML_fit2_pred <- bind_cols(ML_fit2_pred, ML_linear %>% select(Weightgrams))
ML_fit2_pred

# A tibble: 1,920 × 2
   .pred Weightgrams
   <dbl>       <dbl>
 1 3140.        2900
 2 3140.        3400
 3 3135.        2200
 4 3132.        2250
 5 3228.        2600
 6 3129.        2750
 7 3258.        2750
 8 3231.        2770
 9 3148.        2800
10 3252.        3000
# ℹ 1,910 more rows
…
glance(ML_fit2_train) # Model-level statistics

# A tibble: 1 × 12
  r.squared adj.r.squared sigma statistic    p.value    df  logLik    AIC    BIC
      <dbl>         <dbl> <dbl>     <dbl>      <dbl> <dbl>   <dbl>  <dbl>  <dbl>
1    0.0348        0.0307  486.      8.60    3.28e-9     6 -10947. 21911. 21953.
# ℹ 3 more variables: deviance <dbl>, df.residual <int>, nobs <int>

# Produce predictions for R-squared
ML_fit2_pred_train <- predict(ML_fit2_train, new_data = train_data %>% select(-Weightgrams))
ML_fit2_pred_train

# A tibble: 1,440 × 1
   .pred
   <dbl>
 1 3143.
 2 3168.
 3 3219.
 4 3102.
 5 3233.
 6 3150.
 7 3163.
 8 3000.
 9 3018.
10 3127.
# ℹ 1,430 more rows

# Predicted numeric outcome named .pred. Now we will match predicted values with corresponding observed outcome values
ML_fit2_pred_train <- bind_cols(ML_fit2_pred_train, train_data %>% select(Weightgrams))
ML_fit2_pred_train

# A tibble: 1,440 × 2
   .pred Weightgrams
   <dbl>       <dbl>
 1 3143.        3200
 2 3168.        3100
 3 3219.        2760
 4 3102.        3500
 5 3233.        2500
 6 3150.        3000
 7 3163.        3600
 8 3000.        2600
 9 3018.        3700
10 3127.        3850
# ℹ 1,430 more rows
…
glance(ML_fit2_test) # Model-level statistics

# A tibble: 1 × 12
  r.squared adj.r.squared sigma statistic p.value    df logLik   AIC   BIC
      <dbl>         <dbl> <dbl>     <dbl>   <dbl> <dbl>  <dbl> <dbl> <dbl>
1    0.0138       0.00342  513.      1.33   0.251     5 -3674. 7361. 7390.
# ℹ 3 more variables: deviance <dbl>, df.residual <int>, nobs <int>

# Produce predictions for R-squared
ML_fit2_pred_test <- predict(ML_fit2_test, new_data = test_data %>% select(-Weightgrams))
ML_fit2_pred_test

# A tibble: 480 × 1
   .pred
   <dbl>
 1 3084.
 2 3084.
 3 3087.
 4 3137.
 5 3150.
 6 3080.
 7 3203.
 8 3080.
 9 3144.
10 3197.
# ℹ 470 more rows

# Predicted numeric outcome named .pred. Now we will match predicted values with corresponding observed outcome values
ML_fit2_pred_test <- bind_cols(ML_fit2_pred_test, test_data %>% select(Weightgrams))
ML_fit2_pred_test

# A tibble: 480 × 2
   .pred Weightgrams
   <dbl>       <dbl>
 1 3084.        2900
 2 3084.        3400
 3 3087.        2200
 4 3137.        2750
 5 3150.        2770
 6 3080.        2800
 7 3203.        3000
 8 3080.        3200
 9 3144.        3250
10 3197.        3250
# ℹ 470 more rows
…
glance(ML_fit3) # Model-level statistics

# A tibble: 1 × 12
  r.squared adj.r.squared sigma statistic   p.value    df  logLik    AIC    BIC
      <dbl>         <dbl> <dbl>     <dbl>     <dbl> <dbl>   <dbl>  <dbl>  <dbl>
1   0.00993       0.00889  497.      9.61 0.0000703     2 -14642. 29293. 29315.
# ℹ 3 more variables: deviance <dbl>, df.residual <int>, nobs <int>

# Produce predictions for R-squared
ML_fit3_pred <- predict(ML_fit3, new_data = ML_linear %>% select(-Weightgrams))
ML_fit3_pred

# A tibble: 1,920 × 1
   .pred
   <dbl>
 1 3076.
 2 3076.
 3 3076.
 4 3076.
 5 3188.
 6 3076.
 7 3188.
 8 3188.
 9 3100.
10 3188.
# ℹ 1,910 more rows

# Predicted numeric outcome named .pred. Now we will match predicted values with corresponding observed outcome values
ML_fit3_pred <- bind_cols(ML_fit3_pred, ML_linear %>% select(Weightgrams))
ML_fit3_pred

# A tibble: 1,920 × 2
   .pred Weightgrams
   <dbl>       <dbl>
 1 3076.        2900
 2 3076.        3400
 3 3076.        2200
 4 3076.        2250
 5 3188.        2600
 6 3076.        2750
 7 3188.        2750
 8 3188.        2770
 9 3100.        2800
10 3188.        3000
# ℹ 1,910 more rows
…
glance(ML_fit3_train) # Model-level statistics

# A tibble: 1 × 12
  r.squared adj.r.squared sigma statistic  p.value    df  logLik    AIC    BIC
      <dbl>         <dbl> <dbl>     <dbl>    <dbl> <dbl>   <dbl>  <dbl>  <dbl>
1    0.0121        0.0107  491.      8.77 0.000164     2 -10964. 21936. 21957.
# ℹ 3 more variables: deviance <dbl>, df.residual <int>, nobs <int>

# Produce predictions for R-squared
ML_fit3_pred_train <- predict(ML_fit3_train, new_data = train_data %>% select(-Weightgrams))
ML_fit3_pred_train

# A tibble: 1,440 × 1
   .pred
   <dbl>
 1 3202.
 2 3074.
 3 3202.
 4 3202.
 5 3202.
 6 3122.
 7 3074.
 8 3074.
 9 3074.
10 3074.
# ℹ 1,430 more rows

# Predicted numeric outcome named .pred. Now we will match predicted values with corresponding observed outcome values
ML_fit3_pred_train <- bind_cols(ML_fit3_pred_train, train_data %>% select(Weightgrams))
ML_fit3_pred_train

# A tibble: 1,440 × 2
   .pred Weightgrams
   <dbl>       <dbl>
 1 3202.        3200
 2 3074.        3100
 3 3202.        2760
 4 3202.        3500
 5 3202.        2500
 6 3122.        3000
 7 3074.        3600
 8 3074.        2600
 9 3074.        3700
10 3074.        3850
# ℹ 1,430 more rows
…
glance(ML_fit3_test) # Model-level statistics

# A tibble: 1 × 12
  r.squared adj.r.squared sigma statistic p.value    df logLik   AIC   BIC
      <dbl>         <dbl> <dbl>     <dbl>   <dbl> <dbl>  <dbl> <dbl> <dbl>
1   0.00833       0.00417  513.      2.00   0.136     2 -3675. 7358. 7374.
# ℹ 3 more variables: deviance <dbl>, df.residual <int>, nobs <int>

# Produce predictions for R-squared
ML_fit3_pred_test <- predict(ML_fit3_test, new_data = test_data %>% select(-Weightgrams))
ML_fit3_pred_test

# A tibble: 480 × 1
   .pred
   <dbl>
 1 3081.
 2 3081.
 3 3081.
 4 3144.
 5 3144.
 6 3033.
 7 3144.
 8 3081.
 9 3144.
10 3144.
# ℹ 470 more rows

# Predicted numeric outcome named .pred. Now we will match predicted values with corresponding observed outcome values
ML_fit3_pred_test <- bind_cols(ML_fit3_pred_test, test_data %>% select(Weightgrams))
ML_fit3_pred_test

# A tibble: 480 × 2
   .pred Weightgrams
   <dbl>       <dbl>
 1 3081.        2900
 2 3081.        3400
 3 3081.        2200
 4 3144.        2750
 5 3144.        2770
 6 3033.        2800
 7 3144.        3000
 8 3081.        3200
 9 3144.        3250
10 3144.        3250
# ℹ 470 more rows
…
glance(ML_fit4) # Model-level statistics

# A tibble: 1 × 12
  r.squared adj.r.squared sigma statistic    p.value    df  logLik    AIC    BIC
      <dbl>         <dbl> <dbl>     <dbl>      <dbl> <dbl>   <dbl>  <dbl>  <dbl>
1    0.0275        0.0240  493.      7.73    3.04e-9     7 -14625. 29268. 29318.
# ℹ 3 more variables: deviance <dbl>, df.residual <int>, nobs <int>

# Produce predictions for R-squared
ML_fit4_pred <- predict(ML_fit4, new_data = ML_linear %>% select(-Weightgrams))
ML_fit4_pred

# A tibble: 1,920 × 1
   .pred
   <dbl>
 1 3126.
 2 3126.
 3 3121.
 4 3118.
 5 3228.
 6 3115.
 7 3258.
 8 3231.
 9 3162.
10 3252.
# ℹ 1,910 more rows

# Predicted numeric outcome named .pred. Now we will match predicted values with corresponding observed outcome values
ML_fit4_pred <- bind_cols(ML_fit4_pred, ML_linear %>% select(Weightgrams))
ML_fit4_pred

# A tibble: 1,920 × 2
   .pred Weightgrams
   <dbl>       <dbl>
 1 3126.        2900
 2 3126.        3400
 3 3121.        2200
 4 3118.        2250
 5 3228.        2600
 6 3115.        2750
 7 3258.        2750
 8 3231.        2770
 9 3162.        2800
10 3252.        3000
# ℹ 1,910 more rows
…
glance(ML_fit4_train) # Model-level statistics

# A tibble: 1 × 12
  r.squared adj.r.squared sigma statistic    p.value    df  logLik    AIC    BIC
      <dbl>         <dbl> <dbl>     <dbl>      <dbl> <dbl>   <dbl>  <dbl>  <dbl>
1    0.0362        0.0315  486.      7.68    3.90e-9     7 -10946. 21911. 21958.
# ℹ 3 more variables: deviance <dbl>, df.residual <int>, nobs <int>

# Produce predictions for R-squared
ML_fit4_pred_train <- predict(ML_fit4_train, new_data = train_data %>% select(-Weightgrams))
ML_fit4_pred_train

# A tibble: 1,440 × 1
   .pred
   <dbl>
 1 3143.
 2 3143.
 3 3220.
 4 3102.
 5 3233.
 6 3174.
 7 3139.
 8 2975.
 9 2993.
10 3103.
# ℹ 1,430 more rows

# Predicted numeric outcome named .pred. Now we will match predicted values with corresponding observed outcome values
ML_fit4_pred_train <- bind_cols(ML_fit4_pred_train, train_data %>% select(Weightgrams))
ML_fit4_pred_train

# A tibble: 1,440 × 2
   .pred Weightgrams
   <dbl>       <dbl>
 1 3143.        3200
 2 3143.        3100
 3 3220.        2760
 4 3102.        3500
 5 3233.        2500
 6 3174.        3000
 7 3139.        3600
 8 2975.        2600
 9 2993.        3700
10 3103.        3850
# ℹ 1,430 more rows
…
glance(ML_fit4_test) # Model-level statistics

# A tibble: 1 × 12
  r.squared adj.r.squared sigma statistic p.value    df logLik   AIC   BIC
      <dbl>         <dbl> <dbl>     <dbl>   <dbl> <dbl>  <dbl> <dbl> <dbl>
1    0.0146       0.00213  513.      1.17   0.321     6 -3673. 7363. 7396.
# ℹ 3 more variables: deviance <dbl>, df.residual <int>, nobs <int>

# Produce predictions for R-squared
ML_fit4_pred_test <- predict(ML_fit4_test, new_data = test_data %>% select(-Weightgrams))
ML_fit4_pred_test

# A tibble: 480 × 1
   .pred
   <dbl>
 1 3103.
 2 3103.
 3 3106.
 4 3137.
 5 3149.
 6 3061.
 7 3201.
 8 3100.
 9 3144.
10 3196.
# ℹ 470 more rows

# Predicted numeric outcome named .pred. Now we will match predicted values with corresponding observed outcome values
ML_fit4_pred_test <- bind_cols(ML_fit4_pred_test, test_data %>% select(Weightgrams))
ML_fit4_pred_test

# A tibble: 480 × 2
   .pred Weightgrams
   <dbl>       <dbl>
 1 3103.        2900
 2 3103.        3400
 3 3106.        2200
 4 3137.        2750
 5 3149.        2770
 6 3061.        2800
 7 3201.        3000
 8 3100.        3200
 9 3144.        3250
10 3196.        3250
# ℹ 470 more rows
…
