Intro Statistical Analysis Script
…
glance(ML_fit1) # Model-level statistics

# A tibble: 1 × 12
  r.squared adj.r.squared sigma statistic   p.value    df  logLik    AIC    BIC
      <dbl>         <dbl> <dbl>     <dbl>     <dbl> <dbl>   <dbl>  <dbl>  <dbl>
1   0.00932       0.00881  494.      18.0 0.0000227     1 -14626. 29259. 29275.
# ℹ 3 more variables: deviance <dbl>, df.residual <int>, nobs <int>

# Produce predictions for R-squared
ML_fit1_pred <- predict(ML_fit1, new_data = ML_linear %>% select(-Weightgrams))
ML_fit1_pred

# A tibble: 1,919 × 1
   .pred
   <dbl>
 1 3090.
 2 3090.
 3 3090.
 4 3090.
 5 3188.
 6 3090.
 7 3188.
 8 3188.
 9 3090.
10 3188.
# ℹ 1,909 more rows

# Predicted numeric outcome named .pred. Now we will match predicted values with corresponding observed outcome values
ML_fit1_pred <- bind_cols(ML_fit1_pred, ML_linear %>% select(Weightgrams))
ML_fit1_pred

# A tibble: 1,919 × 2
   .pred Weightgrams
   <dbl>       <dbl>
 1 3090.        2900
 2 3090.        3400
 3 3090.        2200
 4 3090.        2250
 5 3188.        2600
 6 3090.        2750
 7 3188.        2750
 8 3188.        2770
 9 3090.        2800
10 3188.        3000
# ℹ 1,909 more rows
…
glance(ML_fit_age) # Model-level statistics

# A tibble: 1 × 12
  r.squared adj.r.squared sigma statistic   p.value    df  logLik    AIC    BIC
      <dbl>         <dbl> <dbl>     <dbl>     <dbl> <dbl>   <dbl>  <dbl>  <dbl>
1   0.00793       0.00742  495.      15.3 0.0000933     1 -14628. 29261. 29278.
# ℹ 3 more variables: deviance <dbl>, df.residual <int>, nobs <int>

# Produce predictions for RMSE and R-squared
ML_age_pred <- predict(ML_fit_age, new_data = ML_linear %>% select(-Weightgrams))
ML_age_pred

# A tibble: 1,919 × 1
   .pred
   <dbl>
 1 3144.
 2 3144.
 3 3129.
 4 3121.
 5 3152.
 6 3113.
 7 3239.
 8 3160.
 9 3168.
10 3144.
# ℹ 1,909 more rows

# Predicted numeric outcome named .pred. Now we will match predicted values with corresponding observed outcome values
ML_age_pred <- bind_cols(ML_age_pred, ML_linear %>% select(Weightgrams))
ML_age_pred

# A tibble: 1,919 × 2
   .pred Weightgrams
   <dbl>       <dbl>
 1 3144.        2900
 2 3144.        3400
 3 3129.        2200
 4 3121.        2250
 5 3152.        2600
 6 3113.        2750
 7 3239.        2750
 8 3160.        2770
 9 3168.        2800
10 3144.        3000
# ℹ 1,909 more rows
…
